> FinalData
# A tibble: 180 x 88
# Groups:   subject [30]
   subject activity          
     <int> <chr>             
 1       1 LAYING            
 2       1 SITTING           
 3       1 STANDING          
 4       1 WALKING           
 5       1 WALKING_DOWNSTAIRS
 6       1 WALKING_UPSTAIRS  
 7       2 LAYING            
 8       2 SITTING           
 9       2 STANDING          
10       2 WALKING           
# ... with 170 more rows, and
#   86 more variables:
#   TimeBodyAccelerometer.mean...X <dbl>,
#   TimeBodyAccelerometer.mean...Y <dbl>,
#   TimeBodyAccelerometer.mean...Z <dbl>,
#   TimeGravityAccelerometer.mean...X <dbl>,
#   TimeGravityAccelerometer.mean...Y <dbl>,
#   TimeGravityAccelerometer.mean...Z <dbl>,
#   TimeBodyAccelerometerJerk.mean...X <dbl>,
…
